<svg 
 xmlns="http://www.w3.org/2000/svg"
 xmlns:xlink="http://www.w3.org/1999/xlink"
 viewBox="0 0 19 19">
<path fill-rule="evenodd"  
 d="M0.236,15.700 C0.245,15.582 0.299,15.469 0.386,15.384 L7.960,7.901 C7.662,7.207 7.505,6.456 7.505,5.680 C7.505,4.163 8.104,2.736 9.187,1.662 C10.273,0.591 11.716,0.000 13.253,0.000 C14.789,0.000 16.231,0.591 17.318,1.663 C19.561,3.878 19.561,7.481 17.318,9.696 C16.231,10.770 14.789,11.362 13.253,11.362 C12.467,11.362 11.709,11.205 11.006,10.910 L8.517,13.370 C8.414,13.471 8.277,13.525 8.130,13.520 L6.774,13.473 L6.818,14.816 C6.823,14.958 6.771,15.096 6.667,15.197 C6.567,15.297 6.426,15.352 6.283,15.347 L4.923,15.301 L4.971,16.642 C4.976,16.784 4.920,16.922 4.820,17.023 C4.717,17.124 4.596,17.178 4.433,17.173 L3.075,17.127 L3.121,18.469 C3.129,18.618 3.065,18.761 2.958,18.863 C2.858,18.952 2.735,19.000 2.604,19.000 C2.585,19.000 2.566,18.999 2.547,18.997 L0.465,18.769 C0.184,18.739 -0.021,18.491 0.003,18.212 L0.236,15.700 ZM13.947,4.994 C14.586,5.625 15.620,5.625 16.258,4.994 C16.897,4.363 16.897,3.342 16.258,2.711 C15.620,2.081 14.587,2.080 13.947,2.711 C13.309,3.342 13.309,4.363 13.947,4.994 ZM2.013,15.872 C2.089,15.947 2.191,15.984 2.290,15.984 C2.389,15.984 2.490,15.947 2.566,15.872 L9.010,9.503 C8.831,9.312 8.668,9.111 8.520,8.899 L2.013,15.326 C1.861,15.477 1.861,15.722 2.013,15.872 Z"/>
</svg>