<!-- Generated by IcoMoon.io -->
<svg version="1.1" xmlns="http://www.w3.org/2000/svg" width="20" height="32" viewBox="0 0 20 32">
<title>od</title>
<path d="M19.704 19.379c-0.999 1.017-2.201 1.752-3.537 2.267-1.263 0.485-2.646 0.728-4.015 0.891 0.205 0.222 0.303 0.332 0.433 0.461 1.859 1.851 3.725 3.695 5.58 5.551 0.632 0.633 0.763 1.418 0.414 2.154-0.379 0.803-1.231 1.332-2.065 1.277-0.529-0.037-0.941-0.298-1.307-0.664-1.403-1.4-2.833-2.772-4.207-4.197-0.401-0.416-0.593-0.337-0.945 0.024-1.411 1.44-2.846 2.858-4.29 4.266-0.648 0.633-1.418 0.748-2.171 0.387-0.798-0.384-1.305-1.192-1.267-2.004 0.027-0.549 0.3-0.968 0.68-1.346 1.839-1.821 3.673-3.645 5.509-5.47 0.123-0.121 0.236-0.248 0.413-0.436-2.503-0.259-4.76-0.869-6.693-2.368-0.239-0.185-0.487-0.365-0.706-0.573-0.845-0.807-0.931-1.728-0.261-2.678 0.573-0.813 1.533-1.029 2.531-0.564 0.194 0.093 0.379 0.204 0.554 0.325 3.603 2.452 8.549 2.52 12.163 0.111 0.359-0.273 0.741-0.495 1.184-0.608 0.864-0.219 1.667 0.094 2.131 0.842 0.529 0.856 0.522 1.688-0.13 2.351zM10.454 16.199c-4.465-0.017-8.126-3.683-8.101-8.116 0.027-4.482 3.69-8.093 8.199-8.081 4.519 0.012 8.147 3.675 8.123 8.204-0.024 4.423-3.709 8.008-8.221 7.993zM10.52 4.138c-2.235-0.003-4.019 1.782-4.002 4.002 0.017 2.193 1.8 3.933 4.024 3.924 2.215-0.007 3.978-1.77 3.971-3.97-0.008-2.203-1.777-3.955-3.993-3.956z"></path>
</svg>
