<svg 
 xmlns="http://www.w3.org/2000/svg"
 xmlns:xlink="http://www.w3.org/1999/xlink"
 viewBox="0 0 15 21">
<path fill-rule="evenodd"
 d="M14.791,10.087 L0.759,0.084 C0.610,-0.021 0.418,-0.032 0.259,0.054 C0.100,0.140 -0.000,0.310 -0.000,0.496 L-0.000,20.500 C-0.000,20.686 0.100,20.857 0.259,20.943 C0.329,20.982 0.407,21.001 0.484,21.001 C0.580,21.001 0.676,20.971 0.759,20.912 L14.791,10.910 C14.922,10.816 15.000,10.663 15.000,10.498 C15.000,10.334 14.922,10.180 14.791,10.087 Z"/>
</svg>